module gitlab.com/trendgolibrary/trend-cache

go 1.22.1

require (
	github.com/go-redis/redis/v7 v7.4.1
	github.com/redis/go-redis/v9 v9.5.1
)

require (
	github.com/cespare/xxhash/v2 v2.2.0 // indirect
	github.com/dgryski/go-rendezvous v0.0.0-20200823014737-9f7001d12a5f // indirect
)
